{"logLevel":"debug","message":"multithreading is set to false"}
{"logLevel":"debug","message":"Using reflection to scan dependencies for gauge implementations..."}
{"logLevel":"debug","message":"gauge-java took 1483milliseconds to load and scan. This should be less than 'runner_connection_timeout' config value."}
{"logLevel":"debug","message":"run 'gauge config runner_connection_timeout' and verify that it is < 1483"}
{"logLevel":"debug","message":"starting gRPC server..."}
{"logLevel":"debug","message":"started gRPC server on port 57554"}
{"logLevel":"info","message":"Listening on port:57554"}
{"logLevel":"debug","message":"Scanning packages for steps"}
{"logLevel":"debug","message":"Comparing 'Anasayfa.girisBilgileri' and 'Anasayfa.girisBilgileri'"}
{"logLevel":"debug","message":"Found {} ve {} ile sisteme giris in current project scope."}
{"logLevel":"debug","message":"Comparing 'Anasayfa.butonKontrol' and 'Anasayfa.butonKontrol'"}
{"logLevel":"debug","message":"Found Buton Kontrol Et in current project scope."}
{"logLevel":"debug","message":"Comparing 'Anasayfa.girisSayfasi' and 'Anasayfa.girisSayfasi'"}
{"logLevel":"debug","message":"Found Giris Sayfasina Git in current project scope."}
{"logLevel":"debug","message":"Comparing 'Anasayfa.anaSayfayaGit' and 'Anasayfa.anaSayfayaGit'"}
{"logLevel":"debug","message":"Found Anasayfaya Git in current project scope."}
{"logLevel":"debug","message":"Comparing 'Anasayfa.girisKontrol' and 'Anasayfa.girisKontrol'"}
{"logLevel":"debug","message":"Found {} Giris Dogrulugu Kontrol in current project scope."}
{"logLevel":"debug","message":"Comparing 'Anasayfa.butonKontrol2' and 'Anasayfa.butonKontrol2'"}
{"logLevel":"debug","message":"Found Giris Sayfasi Buton Kontrol in current project scope."}
{"logLevel":"debug","message":"Scanning packages for hooks"}
{"logLevel":"debug","message":"Scanned steps (using static parsing + reflections): "}
{"logLevel":"debug","message":"\tGiris Sayfasina Git : public void girisSayfasi() throws InterruptedException"}
{"logLevel":"debug","message":"\tAnasayfaya Git : public void anaSayfayaGit()"}
{"logLevel":"debug","message":"\t{} Giris Dogrulugu Kontrol : public void girisKontrol(String isimSoyisim)"}
{"logLevel":"debug","message":"\tGiris Sayfasi Buton Kontrol : public void butonKontrol2()"}
{"logLevel":"debug","message":"\tButon Kontrol Et : public void butonKontrol()"}
{"logLevel":"debug","message":"\t{} ve {} ile sisteme giris : public void girisBilgileri(String email, String sifre) throws InterruptedException"}
Senaryo Hazirlaniyor
Starting ChromeDriver 87.0.4280.88 (89e2380a3e36c3464b5dd1302349b1382549290d-refs/branch-heads/4280@{#1761}) on port 17121
Only local connections are allowed.
Please see https://chromedriver.chromium.org/security-considerations for suggestions on keeping ChromeDriver safe.
ChromeDriver was started successfully.
Oca 13, 2021 1:56:17 ÖS org.openqa.selenium.remote.ProtocolHandshake createSession
INFO: Detected dialect: W3C
{"logLevel":"debug","message":"Executing 'Anasayfaya Git' using 'class Anasayfa.anaSayfayaGit"}
Ana Sayfa Yuklendi
{"logLevel":"debug","message":"Executing 'Buton Kontrol Et' using 'class Anasayfa.butonKontrol"}
Senaryo Tamamlandi
