{"logLevel":"debug","message":"multithreading is set to false"}
{"logLevel":"debug","message":"Using reflection to scan dependencies for gauge implementations..."}
{"logLevel":"debug","message":"gauge-java took 813milliseconds to load and scan. This should be less than 'runner_connection_timeout' config value."}
{"logLevel":"debug","message":"run 'gauge config runner_connection_timeout' and verify that it is < 813"}
{"logLevel":"debug","message":"starting gRPC server..."}
{"logLevel":"debug","message":"started gRPC server on port 59697"}
{"logLevel":"info","message":"Listening on port:59697"}
{"logLevel":"debug","message":"Scanning packages for steps"}
{"logLevel":"debug","message":"Comparing 'Anasayfa.girisBilgileri' and 'Anasayfa.girisBilgileri'"}
{"logLevel":"debug","message":"Found {} ve {} ile sisteme giris in current project scope."}
{"logLevel":"debug","message":"Comparing 'Anasayfa.butonKontrol' and 'Anasayfa.butonKontrol'"}
{"logLevel":"debug","message":"Found Buton Kontrol Et in current project scope."}
{"logLevel":"debug","message":"Comparing 'Anasayfa.girisSayfasi' and 'Anasayfa.girisSayfasi'"}
{"logLevel":"debug","message":"Found Giris Sayfasina Git in current project scope."}
{"logLevel":"debug","message":"Comparing 'Anasayfa.clickedLogin' and 'Anasayfa.clickedLogin'"}
{"logLevel":"debug","message":"Found Giris Butonuna tıkla in current project scope."}
{"logLevel":"debug","message":"Comparing 'Anasayfa.anaSayfayaGit' and 'Anasayfa.anaSayfayaGit'"}
{"logLevel":"debug","message":"Found Anasayfaya Git in current project scope."}
{"logLevel":"debug","message":"Comparing 'Anasayfa.girisKontrol' and 'Anasayfa.girisKontrol'"}
{"logLevel":"debug","message":"Found {} Giris Dogrulugu Kontrol in current project scope."}
{"logLevel":"debug","message":"Comparing 'Anasayfa.butonKontrol2' and 'Anasayfa.butonKontrol2'"}
{"logLevel":"debug","message":"Found Giris Sayfasi Buton Kontrol in current project scope."}
{"logLevel":"debug","message":"Scanning packages for hooks"}
{"logLevel":"debug","message":"Scanned steps (using static parsing + reflections): "}
{"logLevel":"debug","message":"\tGiris Butonuna tıkla : public void clickedLogin() throws InterruptedException"}
{"logLevel":"debug","message":"\tGiris Sayfasina Git : public void girisSayfasi() throws InterruptedException"}
{"logLevel":"debug","message":"\tAnasayfaya Git : public void anaSayfayaGit()"}
{"logLevel":"debug","message":"\t{} Giris Dogrulugu Kontrol : public void girisKontrol(String isimSoyisim)"}
{"logLevel":"debug","message":"\tGiris Sayfasi Buton Kontrol : public void butonKontrol2()"}
{"logLevel":"debug","message":"\tButon Kontrol Et : public void butonKontrol()"}
{"logLevel":"debug","message":"\t{} ve {} ile sisteme giris : public void girisBilgileri(String email, String sifre)"}
Senaryo Hazirlaniyor
Starting ChromeDriver 87.0.4280.88 (89e2380a3e36c3464b5dd1302349b1382549290d-refs/branch-heads/4280@{#1761}) on port 28887
Only local connections are allowed.
Please see https://chromedriver.chromium.org/security-considerations for suggestions on keeping ChromeDriver safe.
ChromeDriver was started successfully.
Oca 14, 2021 1:15:44 ÖS org.openqa.selenium.remote.ProtocolHandshake createSession
INFO: Detected dialect: W3C
{"logLevel":"debug","message":"Executing 'Anasayfaya Git' using 'class Anasayfa.anaSayfayaGit"}
Ana Sayfa Yuklendi
{"logLevel":"debug","message":"Executing 'Buton Kontrol Et' using 'class Anasayfa.butonKontrol"}
Buton Mevcut, Ana Sayfadasiniz.
{"logLevel":"debug","message":"Executing 'Giris Sayfasina Git' using 'class Anasayfa.girisSayfasi"}
Giris Sayfasina Yonlenildi
{"logLevel":"debug","message":"Executing 'Giris Sayfasi Buton Kontrol' using 'class Anasayfa.butonKontrol2"}
Buton Mevcut, Giris Sayfasindasiniz.
{"logLevel":"debug","message":"Executing '{} ve {} ile sisteme giris' using 'class Anasayfa.girisBilgileri"}
{"logLevel":"debug","message":"Executing 'Giris Butonuna tıkla' using 'class Anasayfa.clickedLogin"}
Giris Basarili
{"logLevel":"debug","message":"Executing '{} Giris Dogrulugu Kontrol' using 'class Anasayfa.girisKontrol"}
 yusuf buzrul kullanicisi ile giris kontrolu basarili. 
Senaryo Tamamlandi
Senaryo Hazirlaniyor
Starting ChromeDriver 87.0.4280.88 (89e2380a3e36c3464b5dd1302349b1382549290d-refs/branch-heads/4280@{#1761}) on port 12409
Only local connections are allowed.
Please see https://chromedriver.chromium.org/security-considerations for suggestions on keeping ChromeDriver safe.
ChromeDriver was started successfully.
Oca 14, 2021 1:16:08 ÖS org.openqa.selenium.remote.ProtocolHandshake createSession
INFO: Detected dialect: W3C
{"logLevel":"debug","message":"Executing 'Anasayfaya Git' using 'class Anasayfa.anaSayfayaGit"}
Ana Sayfa Yuklendi
{"logLevel":"debug","message":"Executing 'Buton Kontrol Et' using 'class Anasayfa.butonKontrol"}
Buton Mevcut, Ana Sayfadasiniz.
{"logLevel":"debug","message":"Executing 'Giris Sayfasina Git' using 'class Anasayfa.girisSayfasi"}
Giris Sayfasina Yonlenildi
{"logLevel":"debug","message":"Executing 'Giris Sayfasi Buton Kontrol' using 'class Anasayfa.butonKontrol2"}
Buton Mevcut, Giris Sayfasindasiniz.
{"logLevel":"debug","message":"Executing '{} ve {} ile sisteme giris' using 'class Anasayfa.girisBilgileri"}
{"logLevel":"debug","message":"Executing 'Giris Butonuna tıkla' using 'class Anasayfa.clickedLogin"}
Giris Basarili
{"logLevel":"debug","message":"Executing '{} Giris Dogrulugu Kontrol' using 'class Anasayfa.girisKontrol"}
 yusuf degil kullanicisi ile giris kontrolu basarisiz.
Senaryo Tamamlandi
Senaryo Hazirlaniyor
Starting ChromeDriver 87.0.4280.88 (89e2380a3e36c3464b5dd1302349b1382549290d-refs/branch-heads/4280@{#1761}) on port 19351
Only local connections are allowed.
Please see https://chromedriver.chromium.org/security-considerations for suggestions on keeping ChromeDriver safe.
ChromeDriver was started successfully.
Oca 14, 2021 1:16:32 ÖS org.openqa.selenium.remote.ProtocolHandshake createSession
INFO: Detected dialect: W3C
{"logLevel":"debug","message":"Executing 'Anasayfaya Git' using 'class Anasayfa.anaSayfayaGit"}
Ana Sayfa Yuklendi
{"logLevel":"debug","message":"Executing 'Buton Kontrol Et' using 'class Anasayfa.butonKontrol"}
Buton Mevcut, Ana Sayfadasiniz.
{"logLevel":"debug","message":"Executing 'Giris Sayfasina Git' using 'class Anasayfa.girisSayfasi"}
Giris Sayfasina Yonlenildi
{"logLevel":"debug","message":"Executing 'Giris Sayfasi Buton Kontrol' using 'class Anasayfa.butonKontrol2"}
Buton Mevcut, Giris Sayfasindasiniz.
{"logLevel":"debug","message":"Executing '{} ve {} ile sisteme giris' using 'class Anasayfa.girisBilgileri"}
{"logLevel":"debug","message":"Executing 'Giris Butonuna tıkla' using 'class Anasayfa.clickedLogin"}
Uye Girisi Basarisiz
Senaryo Tamamlandi
Senaryo Hazirlaniyor
Starting ChromeDriver 87.0.4280.88 (89e2380a3e36c3464b5dd1302349b1382549290d-refs/branch-heads/4280@{#1761}) on port 11147
Only local connections are allowed.
Please see https://chromedriver.chromium.org/security-considerations for suggestions on keeping ChromeDriver safe.
ChromeDriver was started successfully.
Oca 14, 2021 1:16:55 ÖS org.openqa.selenium.remote.ProtocolHandshake createSession
INFO: Detected dialect: W3C
{"logLevel":"debug","message":"Executing 'Anasayfaya Git' using 'class Anasayfa.anaSayfayaGit"}
Ana Sayfa Yuklendi
{"logLevel":"debug","message":"Executing 'Buton Kontrol Et' using 'class Anasayfa.butonKontrol"}
Buton Mevcut, Ana Sayfadasiniz.
{"logLevel":"debug","message":"Executing 'Giris Sayfasina Git' using 'class Anasayfa.girisSayfasi"}
Giris Sayfasina Yonlenildi
{"logLevel":"debug","message":"Executing 'Giris Sayfasi Buton Kontrol' using 'class Anasayfa.butonKontrol2"}
Buton Mevcut, Giris Sayfasindasiniz.
{"logLevel":"debug","message":"Executing '{} ve {} ile sisteme giris' using 'class Anasayfa.girisBilgileri"}
{"logLevel":"debug","message":"Executing 'Giris Butonuna tıkla' using 'class Anasayfa.clickedLogin"}
Uye Girisi Basarisiz
Senaryo Tamamlandi
Senaryo Hazirlaniyor
Starting ChromeDriver 87.0.4280.88 (89e2380a3e36c3464b5dd1302349b1382549290d-refs/branch-heads/4280@{#1761}) on port 48312
Only local connections are allowed.
Please see https://chromedriver.chromium.org/security-considerations for suggestions on keeping ChromeDriver safe.
ChromeDriver was started successfully.
Oca 14, 2021 1:17:17 ÖS org.openqa.selenium.remote.ProtocolHandshake createSession
INFO: Detected dialect: W3C
{"logLevel":"debug","message":"Executing 'Anasayfaya Git' using 'class Anasayfa.anaSayfayaGit"}
Ana Sayfa Yuklendi
{"logLevel":"debug","message":"Executing 'Buton Kontrol Et' using 'class Anasayfa.butonKontrol"}
Buton Mevcut, Ana Sayfadasiniz.
{"logLevel":"debug","message":"Executing 'Giris Sayfasina Git' using 'class Anasayfa.girisSayfasi"}
Giris Sayfasina Yonlenildi
{"logLevel":"debug","message":"Executing 'Giris Sayfasi Buton Kontrol' using 'class Anasayfa.butonKontrol2"}
Buton Mevcut, Giris Sayfasindasiniz.
{"logLevel":"debug","message":"Executing '{} ve {} ile sisteme giris' using 'class Anasayfa.girisBilgileri"}
{"logLevel":"debug","message":"Executing 'Giris Butonuna tıkla' using 'class Anasayfa.clickedLogin"}
Uye Girisi Basarisiz
Senaryo Tamamlandi
Senaryo Hazirlaniyor
Starting ChromeDriver 87.0.4280.88 (89e2380a3e36c3464b5dd1302349b1382549290d-refs/branch-heads/4280@{#1761}) on port 40290
Only local connections are allowed.
Please see https://chromedriver.chromium.org/security-considerations for suggestions on keeping ChromeDriver safe.
ChromeDriver was started successfully.
Oca 14, 2021 1:17:40 ÖS org.openqa.selenium.remote.ProtocolHandshake createSession
INFO: Detected dialect: W3C
{"logLevel":"debug","message":"Executing 'Anasayfaya Git' using 'class Anasayfa.anaSayfayaGit"}
Ana Sayfa Yuklendi
{"logLevel":"debug","message":"Executing 'Buton Kontrol Et' using 'class Anasayfa.butonKontrol"}
Buton Mevcut, Ana Sayfadasiniz.
{"logLevel":"debug","message":"Executing 'Giris Sayfasina Git' using 'class Anasayfa.girisSayfasi"}
Giris Sayfasina Yonlenildi
{"logLevel":"debug","message":"Executing 'Giris Sayfasi Buton Kontrol' using 'class Anasayfa.butonKontrol2"}
Buton Mevcut, Giris Sayfasindasiniz.
{"logLevel":"debug","message":"Executing '{} ve {} ile sisteme giris' using 'class Anasayfa.girisBilgileri"}
{"logLevel":"debug","message":"Executing 'Giris Butonuna tıkla' using 'class Anasayfa.clickedLogin"}
Uye Girisi Basarisiz
Senaryo Tamamlandi
